Opening url: http://localhost:8086/Renderers/FunctionPreview.ashx?type=function&title=Dashboard&description=&markup=NcrBDcMgDADAVRAD2O0XNZGidINOQAIEpNpGsSM6fl69971KKBfv1oTdj76soUy_mvWAOMaAXaiLNsvA2ZAV.xuf8PCOI_XJr6SfKr03PtZ4GiyJGsM7at0knsk7nG8-&lang=fr-CA&p=f555b14a-cea5-49fd-922c-6430257dd144&t=e3851f7a-3f4b-4eda-9708-07c3b6020e08&ph=content&width=1440&hash=-305122611
warn: clientRect is empty, redering a 1x1 image. ""
SUCCESS
END_OF_REPLY
