Opening url: http://localhost:8086/Renderers/FunctionPreview.ashx?type=function&title=Pages&description=&markup=NcrLDYAgDADQVQgDtHol4oUFTJyAEH6JFGJrcHxPvvPbkkkPBamd1NsuYpOsLiLDIM45IfQ2OleJQFGQGP_NKyxakW.Ratf4LH2MStn5W_DwObJWuH8-&lang=fr-CA&p=25d09195-a3f1-4d41-b373-7bd4ef3d0a47&t=e3851f7a-3f4b-4eda-9708-07c3b6020e08&ph=content&width=1440&hash=-305122611
SUCCESS
END_OF_REPLY
