Opening url: http://localhost:8086//Renderers/TemplatePreview.ashx?p=6a111412-6729-4ae6-8dde-0ae5bc5faf22&t=a270f819-0b5c-4f7e-9194-4b554043e4ab&hash=-780803093
templateInfo:jumbotron,450,139,1020,300|content,390,537,750,600|aside,1170,537,360,300
SUCCESS
END_OF_REPLY
