Opening url: http://localhost:8086//Renderers/TemplatePreview.ashx?p=d3720476-37b9-49d1-af47-ff0dce2df399&t=a270f819-0b5c-4f7e-9194-4b554043e4ab&hash=-780803093
page.onResourceError: url 'http://localhost:8086/account/login'; Error code: 5. Description: Operation canceled
templateInfo:jumbotron,450,139,1020,300|content,390,537,750,600|aside,1170,537,360,300
SUCCESS
END_OF_REPLY
